[
	{
		"deals_amount": 1740680.62,
		"name": "Lina"
	},
	{
		"deals_amount": 1781395.15,
		"name": "Richard"
	},
	{
		"deals_amount": 1722742.71,
		"name": "Selvyn"
	},
	{
		"deals_amount": 1800789.04,
		"name": "Lewis"
	},
	{
		"deals_amount": 1852120.13,
		"name": "Estelle"
	}
]
